{
	"id": "eb60826d-3f55-46ca-965f-4b2f381012bb",
	"name": "Asana",
	"values": [
		{
			"key": "url",
			"value": "https://app.asana.com/api/1.0",
			"enabled": true
		},
		{
			"key": "token",
			"value": "0/d742e10f5c342746243cf72a78f012f5",
			"enabled": true
		},
		{
			"key": "workspaceId",
			"value": "",
			"enabled": true
		},
		{
			"key": "userId",
			"value": "",
			"enabled": true
		},
		{
			"key": "created_project",
			"value": "",
			"enabled": true
		},
		{
			"key": "project_1",
			"value": "",
			"enabled": true
		},
		{
			"key": "status",
			"value": "",
			"enabled": true
		}
	],
	"_postman_variable_scope": "environment",
	"_postman_exported_at": "2019-11-26T11:41:25.534Z",
	"_postman_exported_using": "Postman/7.12.0"
}